SYMBOLSET
SYMBOL
	NAME "vide"
	TYPE vector
	POINTS 1 1 END
END

Symbol
	Name 'Tente'
	Type VECTOR
	Filled TRUE
	Points
		0 1
		.5 0
		1 1
		.75 1
		.5 .5
		.25 1
		0 1
	END
END 

SYMBOL
	NAME "Ligne_pointille"
	TYPE ELLIPSE
	FILLED TRUE
	POINTS
		1 1
	END
	#STYLE
		#6 6
	#END
END

Symbol
	Name 'Etoile'
	Type VECTOR
	Filled TRUE
	Points
		0 .375
		.35 .375
		.5 0
		.65 .375
		1 .375
		.75 .625
		.875 1
		.5 .75
		.125 1
		.25 .625
	END
END

Symbol
	Name 'Trame1'
	Type VECTOR
	Filled FAlSE
	Points
		0 0.5
		0.5 0
		-99 -99
		0 1
		1 0
		-99 -99
		0.5 1
		1 0.5	
	END
END

Symbol
	Name 'Trame2'
	Type VECTOR
	Filled FALSE
	Points
		0 0
		-99 -99
		0 0
		1 1
		-99 -99
		0 0.5
		0.5 1
		-99 -99
		0.5 0
		1 0.5	
		-99 -99
		0 0
	END
END 

Symbol
	Name 'Trame3'
	Type VECTOR
	Filled FAlSE
	Points
		0 0
		-99 -99
		0.25 0
		0.25 1
		-99 -99
		0.75 0
		0.75 1
		-99 -99
		1 1	
	END
END

Symbol
	Name 'Trame4'
	Type VECTOR
	Filled FAlSE
	Points
		0 0
		-99 -99
		0 0.25
		1 0.25
		-99 -99
		0 0.75
		1 0.75
		-99 -99
		1 1	
	END
END

Symbol
	Name 'Trame5'
	Type VECTOR
	Filled FALSE
	Points
		0 0
		-99 -99
		0 0
		1 0
		-99 -99
		0 0.33
		1 0.33
		-99 -99
		0 0.66
		1 0.66
		-99 -99
		0 0
		0 1
		-99 -99
		0.33 0
		0.33 1
		-99 -99
		0.66 0
		0.66 1
		-99 -99
		1 1	
	END
END

Symbol
	Name 'Triangle'
	Type VECTOR
	Filled TRUE
	Points
		0 1
		.5 0
		1 1
		0 1
	END
END 

Symbol
	Name 'Carre'
	Type VECTOR
	Filled TRUE
	Points
		0 1
		0 0
		1 0
		1 1
		0 1
	END
END 

Symbol
	Name 'Cercle'
	Type ELLIPSE
	Filled TRUE
	Points
		1 1
	END
END 

Symbol
	Name 'Cercle_vide'
	Type ELLIPSE
	Filled FALSE
	Points
		1 1
	END
END


Symbol
	Name 'Plus'
	Type VECTOR
	Points
		.5 0
		.5 1
		-99 -99
		0 .5
		1 .5
	END
END 

Symbol
	Name 'Croix'
	Type VECTOR
	Points
		0 0
		1 1
		-99 -99
		0 1
		1 0
	END
END

Symbol
	Name 'Horizontal'
	Type VECTOR
	Filled FALSE
	Points
		0 0
		-99 -99
		0 0.5
		1 0.5
		-99 -99
		1 1
	END
END 

Symbol
	Name 'Vertical'
	Type VECTOR
	Filled FALSE
	Points
		0 0
		-99 -99
		0.5 0
		0.5 1
		-99 -99
		1 1
	END
END 

Symbol
	Name 'Oblique_1'
	Type VECTOR
	Filled FALSE
	Points
	0 0
	1 1
	END
END 

Symbol
	Name 'Oblique_2'
	Type VECTOR
	Filled FALSE
	Points
		0 1
		1 0
	END
END 

SYMBOL
	NAME "Continue"
	TYPE ellipse
	FILLED true
	POINTS
		1 1
	END
END

SYMBOL
	NAME 'Tiret 1'
	TYPE ELLIPSE
	POINTS 1 1 END
	FILLED true
	#STYLE 1 1 END
END

SYMBOL
	NAME 'Tiret 2'
	TYPE ELLIPSE
	POINTS 1 1 END
	FILLED true
	#STYLE 2 2 END
END

SYMBOL
	NAME 'Tiret 3'
	TYPE ELLIPSE
	POINTS 1 1 END
	FILLED true
	#STYLE 3 3 END
END

SYMBOL
	NAME 'Tiret 5'
	TYPE ELLIPSE
	POINTS 1 1 END
	FILLED true
	#STYLE 5 5 END
END

SYMBOL
	NAME 'Tiret 10'
	TYPE ELLIPSE
	POINTS 1 1 END
	FILLED true
	#STYLE 10 10 END
END

SYMBOL
	NAME 'Discontinue 5-2'
	TYPE ELLIPSE
	POINTS 1 1 END
	FILLED true
	#STYLE 5 2 END
END

SYMBOL
	NAME 'Discontinue 5-2-1-2'
	TYPE ELLIPSE
	POINTS 1 1 END
	FILLED true
	#STYLE 5 2 1 2 END
END



SYMBOL
	TYPE SVG
	NAME "picto1green"
	IMAGE "picto1green.svg"
END

END

